<svg width="24" height="24" viewBox="0 0 24 24" fill="none" xmlns="http://www.w3.org/2000/svg">
<path d="M16.59 8.36364L12 13.0835L7.41 8.36364L6 9.81671L12 16L18 9.81671L16.59 8.36364Z" fill="#353535"/>
</svg>
