<svg width="57" height="40" viewBox="0 0 57 40" fill="none" xmlns="http://www.w3.org/2000/svg">
<path d="M33.4318 26.1202L27.1386 20.0002L33.4318 13.8802L31.4944 12.0002L23.25 20.0002L31.4944 28.0002L33.4318 26.1202Z" fill="#171717"/>
</svg>
