<svg width="26" height="26" viewBox="0 0 26 26" fill="none" xmlns="http://www.w3.org/2000/svg">
<g clip-path="url(#clip0)">
<path d="M18.9697 10.6H6.84848V8.2H18.9697V10.6ZM18.9697 15.4H6.84848V13H18.9697V15.4ZM15.3333 20.2H6.84848V17.8H15.3333V20.2ZM12.9091 3.4C13.2306 3.4 13.5389 3.52643 13.7662 3.75147C13.9935 3.97652 14.1212 4.28174 14.1212 4.6C14.1212 4.91826 13.9935 5.22348 13.7662 5.44853C13.5389 5.67357 13.2306 5.8 12.9091 5.8C12.5876 5.8 12.2793 5.67357 12.052 5.44853C11.8247 5.22348 11.697 4.91826 11.697 4.6C11.697 4.28174 11.8247 3.97652 12.052 3.75147C12.2793 3.52643 12.5876 3.4 12.9091 3.4ZM21.3939 3.4H16.3273C15.8182 2.008 14.4848 1 12.9091 1C11.3333 1 10 2.008 9.49091 3.4H4.42424C3.78129 3.4 3.16468 3.65286 2.71004 4.10294C2.25541 4.55303 2 5.16348 2 5.8V22.6C2 23.2365 2.25541 23.847 2.71004 24.2971C3.16468 24.7471 3.78129 25 4.42424 25H21.3939C22.0369 25 22.6535 24.7471 23.1081 24.2971C23.5628 23.847 23.8182 23.2365 23.8182 22.6V5.8C23.8182 5.16348 23.5628 4.55303 23.1081 4.10294C22.6535 3.65286 22.0369 3.4 21.3939 3.4Z" fill="#4F4F4F"/>
</g>
<defs>
<clipPath id="clip0">
<rect width="26" height="26" fill="white"/>
</clipPath>
</defs>
</svg>
