<svg width="16" height="16" viewBox="0 0 16 16" fill="none" xmlns="http://www.w3.org/2000/svg">
<path d="M9.53674e-07 9.0101V6.9899H12.1212L6.56566 1.43434L8 9.53674e-07L16 8L8 16L6.56566 14.5657L12.1212 9.0101H9.53674e-07Z" fill="#C24549"/>
</svg>
