<svg width="26" height="26" viewBox="0 0 26 26" fill="none" xmlns="http://www.w3.org/2000/svg">
<g clip-path="url(#clip0)">
<path d="M21.1056 2.48386L21.8092 6.9226L25.858 8.98098L23.8163 13.0057L25.8696 17.0305L21.7862 19.0889L21.0825 23.5276L16.5954 22.8262L13.4002 26L10.1934 22.7802L5.74091 23.5161L5.02573 19.0429L1 16.996L3.05324 12.9713L1.01154 8.98098L5.06034 6.8996L5.76398 2.49536L10.228 3.23131L13.4348 -2.74166e-09L16.63 3.18532L21.1056 2.48386ZM10.551 7.25608C10.0921 7.25608 9.65203 7.43781 9.32754 7.76129C9.00306 8.08477 8.82076 8.52351 8.82076 8.98098C8.82076 9.43845 9.00306 9.87719 9.32754 10.2007C9.65203 10.5242 10.0921 10.7059 10.551 10.7059C11.0099 10.7059 11.45 10.5242 11.7745 10.2007C12.099 9.87719 12.2813 9.43845 12.2813 8.98098C12.2813 8.52351 12.099 8.08477 11.7745 7.76129C11.45 7.43781 11.0099 7.25608 10.551 7.25608ZM16.3185 15.3056C15.8597 15.3056 15.4196 15.4873 15.0951 15.8108C14.7706 16.1343 14.5883 16.573 14.5883 17.0305C14.5883 17.488 14.7706 17.9267 15.0951 18.2502C15.4196 18.5737 15.8597 18.7554 16.3185 18.7554C16.7774 18.7554 17.2175 18.5737 17.542 18.2502C17.8665 17.9267 18.0488 17.488 18.0488 17.0305C18.0488 16.573 17.8665 16.1343 17.542 15.8108C17.2175 15.4873 16.7774 15.3056 16.3185 15.3056ZM9.2937 18.7554L19.2023 8.87749L17.5759 7.25608L7.66726 17.134L9.2937 18.7554Z" fill="#C24549"/>
</g>
<defs>
<clipPath id="clip0">
<rect width="26" height="26" fill="white"/>
</clipPath>
</defs>
</svg>
